{
  "project_info": {
    "project_number": "449286024580",
    "firebase_url": "https://kotlinproject001.firebaseio.com",
    "project_id": "kotlinproject001",
    "storage_bucket": "kotlinproject001.appspot.com"
  },
  "client": [
    {
      "client_info": {
        "mobilesdk_app_id": "1:449286024580:android:96ae8e0ca6de9faf",
        "android_client_info": {
          "package_name": "com.example.kotlinproject001"
        }
      },
      "oauth_client": [
        {
          "client_id": "449286024580-jr5je56ng95kkaap66n0e5tgi95necd1.apps.googleusercontent.com",
          "client_type": 1,
          "android_info": {
            "package_name": "com.example.kotlinproject001",
            "certificate_hash": "4403e33ab811b91be5bf1128e9c90bee27bc3a9d"
          }
        },
        {
          "client_id": "449286024580-9n9237pup8nf5hpsq4qbr0nugus4hlhs.apps.googleusercontent.com",
          "client_type": 3
        }
      ],
      "api_key": [
        {
          "current_key": "AIzaSyB8z88K-8Ih7ruuy_4M-SPM56Wj25eFpS0"
        }
      ],
      "services": {
        "appinvite_service": {
          "other_platform_oauth_client": [
            {
              "client_id": "449286024580-9n9237pup8nf5hpsq4qbr0nugus4hlhs.apps.googleusercontent.com",
              "client_type": 3
            }
          ]
        }
      }
    }
  ],
  "configuration_version": "1"
}